arxvmis/pract7/simulation/qsim/pract7.msim.vcd
$comment
	File created using the following command:
		vcd file pract7.msim.vcd -direction
$end
$date
	Tue Oct 24 19:16:28 2023
$end
$version
	ModelSim Version 10.1d
$end
$timescale
	1ps
$end
$scope module pract7_vlg_vec_tst $end
$var reg 1 ! a $end
$var reg 1 " b $end
$var reg 1 # clock $end
$var wire 1 $ q [3] $end
$var wire 1 % q [2] $end
$var wire 1 & q [1] $end
$var wire 1 ' q [0] $end
$var wire 1 ( sampler $end
$scope module i1 $end
$var wire 1 ) gnd $end
$var wire 1 * vcc $end
$var wire 1 + unknown $end
$var tri1 1 , devclrn $end
$var tri1 1 - devpor $end
$var tri1 1 . devoe $end
$var wire 1 / q[0]~output_o $end
$var wire 1 0 q[1]~output_o $end
$var wire 1 1 q[2]~output_o $end
$var wire 1 2 q[3]~output_o $end
$var wire 1 3 clock~input_o $end
$var wire 1 4 clock~inputclkctrl_outclk $end
$var wire 1 5 b~input_o $end
$var wire 1 6 a~input_o $end
$var wire 1 7 newq2~0_combout $end
$var wire 1 8 newq2~1_combout $end
$var wire 1 9 trig2~q $end
$var wire 1 : newq3~0_combout $end
$var wire 1 ; newq3~1_combout $end
$var wire 1 < newq3~2_combout $end
$var wire 1 = trig3~q $end
$var wire 1 > newq1~0_combout $end
$var wire 1 ? newq1~1_combout $end
$var wire 1 @ trig1~q $end
$var wire 1 A newq0~0_combout $end
$var wire 1 B trig0~q $end
$upscope $end
$upscope $end
$enddefinitions $end
#0
$dumpvars
1!
1"
0#
0'
0&
0%
0$
x(
0)
1*
x+
1,
1-
1.
0/
00
01
02
03
04
15
16
07
18
09
0:
0;
0<
0=
0>
0?
0@
1A
0B
$end
#10000
1#
13
14
0(
1B
19
1>
1/
11
1'
1%
1?
#20000
0#
03
04
1(
#30000
1#
13
14
0(
1@
0A
0>
1<
08
10
1&
0?
#40000
0#
03
04
1(
#50000
1#
13
14
0(
0B
0@
1=
09
0<
18
17
1?
1:
0/
00
12
01
0'
0&
1$
0%
1;
1<
#60000
0#
03
04
1(
#70000
1#
13
14
0(
1@
19
0<
08
0:
10
11
1&
1%
0;
#80000
0#
03
04
1(
#90000
1#
13
14
0(
0=
09
1A
0?
07
1>
1<
18
02
01
0$
0%
08
#100000
0#
03
04
1(
#110000
1#
13
14
0(
1B
0@
1=
18
17
1:
1/
00
12
1'
0&
1$
08
1;
0<
#120000
0#
03
04
1(
#130000
1#
13
14
0(
0=
0A
0:
07
02
0$
0;
18
1<
#140000
0#
03
04
1(
#150000
1#
13
14
0(
0B
1=
19
1A
0>
0<
17
0/
12
11
0'
1$
1%
1?
08
#160000
0#
03
04
1(
#170000
1#
13
14
0(
1B
1@
0=
09
0A
1>
07
0?
1/
10
02
01
1'
1&
0$
0%
#180000
0#
03
04
1(
#190000
1#
13
14
0(
0B
0@
1A
0>
18
0/
00
0'
0&
#200000
0#
03
04
1(
#210000
1#
13
14
0(
1B
19
1>
1/
11
1'
1%
1?
#220000
0#
03
04
1(
#230000
1#
13
14
0(
1@
0A
0>
1<
08
10
1&
0?
#240000
0#
03
04
1(
#250000
1#
13
14
0(
0B
0@
1=
09
0<
18
17
1?
1:
0/
00
12
01
0'
0&
1$
0%
1;
1<
#260000
0#
03
04
1(
#270000
1#
13
14
0(
1@
19
0<
08
0:
10
11
1&
1%
0;
#280000
0#
03
04
1(
#290000
1#
13
14
0(
0=
09
1A
0?
07
1>
1<
18
02
01
0$
0%
08
#300000
0#
03
04
1(
#310000
1#
13
14
0(
1B
0@
1=
18
17
1:
1/
00
12
1'
0&
1$
08
1;
0<
#320000
0#
03
04
1(
#330000
1#
13
14
0(
0=
0A
0:
07
02
0$
0;
18
1<
#340000
0#
03
04
1(
#350000
1#
13
14
0(
0B
1=
19
1A
0>
0<
17
0/
12
11
0'
1$
1%
1?
08
#360000
0#
03
04
1(
#370000
1#
13
14
0(
1B
1@
0=
09
0A
1>
07
0?
1/
10
02
01
1'
1&
0$
0%
#380000
0#
03
04
1(
#390000
1#
13
14
0(
0B
0@
1A
0>
18
0/
00
0'
0&
#400000
0#
03
04
1(
#410000
1#
13
14
0(
1B
19
1>
1/
11
1'
1%
1?
#420000
0#
03
04
1(
#430000
1#
13
14
0(
1@
0A
0>
1<
08
10
1&
0?
#440000
0#
03
04
1(
#450000
1#
13
14
0(
0B
0@
1=
09
0<
18
17
1?
1:
0/
00
12
01
0'
0&
1$
0%
1;
1<
#460000
0#
03
04
1(
#470000
1#
13
14
0(
1@
19
0<
08
0:
10
11
1&
1%
0;
#480000
0#
03
04
1(
#490000
1#
13
14
0(
0=
09
1A
0?
07
1>
1<
18
02
01
0$
0%
08
#500000
0#
03
04
1(
#510000
1#
13
14
0(
1B
0@
1=
18
17
1:
1/
00
12
1'
0&
1$
08
1;
0<
#520000
0#
03
04
1(
#530000
1#
13
14
0(
0=
0A
0:
07
02
0$
0;
18
1<
#540000
0#
03
04
1(
#550000
1#
13
14
0(
0B
1=
19
1A
0>
0<
17
0/
12
11
0'
1$
1%
1?
08
#560000
0#
03
04
1(
#570000
1#
13
14
0(
1B
1@
0=
09
0A
1>
07
0?
1/
10
02
01
1'
1&
0$
0%
#580000
0#
03
04
1(
#590000
1#
13
14
0(
0B
0@
1A
0>
18
0/
00
0'
0&
#600000
0#
03
04
1(
#610000
1#
13
14
0(
1B
19
1>
1/
11
1'
1%
1?
#620000
0#
03
04
1(
#630000
1#
13
14
0(
1@
0A
0>
1<
08
10
1&
0?
#640000
0#
03
04
1(
#650000
1#
13
14
0(
0B
0@
1=
09
0<
18
17
1?
1:
0/
00
12
01
0'
0&
1$
0%
1;
1<
#660000
0#
03
04
1(
#670000
1#
13
14
0(
1@
19
0<
08
0:
10
11
1&
1%
0;
#680000
0#
03
04
1(
#690000
1#
13
14
0(
0=
09
1A
0?
07
1>
1<
18
02
01
0$
0%
08
#700000
0#
03
04
1(
#710000
1#
13
14
0(
1B
0@
1=
18
17
1:
1/
00
12
1'
0&
1$
08
1;
0<
#720000
0#
03
04
1(
#730000
1#
13
14
0(
0=
0A
0:
07
02
0$
0;
18
1<
#740000
0#
03
04
1(
#750000
1#
13
14
0(
0B
1=
19
1A
0>
0<
17
0/
12
11
0'
1$
1%
1?
08
#760000
0#
03
04
1(
#770000
1#
13
14
0(
1B
1@
0=
09
0A
1>
07
0?
1/
10
02
01
1'
1&
0$
0%
#780000
0#
03
04
1(
#790000
1#
13
14
0(
0B
0@
1A
0>
18
0/
00
0'
0&
#800000
0#
03
04
1(
#810000
1#
13
14
0(
1B
19
1>
1/
11
1'
1%
1?
#820000
0#
03
04
1(
#830000
1#
13
14
0(
1@
0A
0>
1<
08
10
1&
0?
#840000
0#
03
04
1(
#850000
1#
13
14
0(
0B
0@
1=
09
0<
18
17
1?
1:
0/
00
12
01
0'
0&
1$
0%
1;
1<
#860000
0#
03
04
1(
#870000
1#
13
14
0(
1@
19
0<
08
0:
10
11
1&
1%
0;
#880000
0#
03
04
1(
#890000
1#
13
14
0(
0=
09
1A
0?
07
1>
1<
18
02
01
0$
0%
08
#900000
0#
03
04
1(
#910000
1#
13
14
0(
1B
0@
1=
18
17
1:
1/
00
12
1'
0&
1$
08
1;
0<
#920000
0#
03
04
1(
#930000
1#
13
14
0(
0=
0A
0:
07
02
0$
0;
18
1<
#940000
0#
03
04
1(
#950000
1#
13
14
0(
0B
1=
19
1A
0>
0<
17
0/
12
11
0'
1$
1%
1?
08
#960000
0#
03
04
1(
#970000
1#
13
14
0(
1B
1@
0=
09
0A
1>
07
0?
1/
10
02
01
1'
1&
0$
0%
#980000
0#
03
04
1(
#990000
1#
13
14
0(
0B
0@
1A
0>
18
0/
00
0'
0&
