arxvmis/pract6/simulation/qsim/praca6.msim.vcd
$comment
	File created using the following command:
		vcd file praca6.msim.vcd -direction
$end
$date
	Tue Oct 24 18:56:17 2023
$end
$version
	ModelSim Version 10.1d
$end
$timescale
	1ps
$end
$scope module praca6_vlg_vec_tst $end
$var reg 1 ! a $end
$var reg 1 " b $end
$var reg 1 # clk $end
$var wire 1 $ q [3] $end
$var wire 1 % q [2] $end
$var wire 1 & q [1] $end
$var wire 1 ' q [0] $end
$var wire 1 ( sampler $end
$scope module i1 $end
$var wire 1 ) gnd $end
$var wire 1 * vcc $end
$var wire 1 + unknown $end
$var tri1 1 , devclrn $end
$var tri1 1 - devpor $end
$var tri1 1 . devoe $end
$var wire 1 / clk~combout $end
$var wire 1 0 1~5_combout $end
$var wire 1 1 a~combout $end
$var wire 1 2 1~4_combout $end
$var wire 1 3 1~3_combout $end
$var wire 1 4 1~6_combout $end
$var wire 1 5 inst19~3_combout $end
$var wire 1 6 inst21~3_combout $end
$var wire 1 7 inst7~regout $end
$var wire 1 8 1~0_combout $end
$var wire 1 9 inst1~3_combout $end
$var wire 1 : b~combout $end
$var wire 1 ; inst1~2_combout $end
$var wire 1 < inst1~5_combout $end
$var wire 1 = inst6~regout $end
$var wire 1 > inst5~regout $end
$var wire 1 ? 1~2_combout $end
$var wire 1 @ 1~1_combout $end
$var wire 1 A inst19~2_combout $end
$var wire 1 B inst19~5_combout $end
$var wire 1 C inst8~regout $end
$upscope $end
$upscope $end
$enddefinitions $end
#0
$dumpvars
1!
1"
0#
0'
0&
0%
0$
x(
0)
1*
x+
1,
1-
1.
0/
00
11
02
03
04
15
06
07
08
19
1:
0;
0<
0=
0>
0?
0@
0A
0B
0C
$end
#10000
1#
1/
0(
1>
17
1;
1'
1%
1<
#20000
0#
0/
1(
#30000
1#
1/
0(
1=
1@
0;
16
1&
0<
#40000
0#
0/
1(
#50000
1#
1/
0(
1C
0>
0=
07
0@
12
1$
0'
0&
0%
09
05
#60000
0#
0/
1(
#70000
1#
1/
0(
1=
17
1;
02
1&
1%
1<
19
15
#80000
0#
0/
1(
#90000
1#
1/
0(
0C
07
1A
0;
0<
0$
0%
1B
#100000
0#
0/
1(
#110000
1#
1/
0(
1C
1>
0=
0A
14
0B
1$
1'
0&
#120000
0#
0/
1(
#130000
1#
1/
0(
0C
1;
04
13
0$
05
#140000
0#
0/
1(
#150000
1#
1/
0(
1C
0>
17
0;
18
03
1<
1$
0'
1%
0<
15
#160000
0#
0/
1(
#170000
1#
1/
0(
0C
1>
1=
07
1A
08
0$
1'
1&
0%
#180000
0#
0/
1(
#190000
1#
1/
0(
0>
0=
1B
06
0A
0'
0&
0B
#200000
0#
0/
1(
#210000
1#
1/
0(
1>
17
1;
1'
1%
1<
#220000
0#
0/
1(
#230000
1#
1/
0(
1=
1@
0;
16
1&
0<
#240000
0#
0/
1(
#250000
1#
1/
0(
1C
0>
0=
07
0@
12
1$
0'
0&
0%
09
05
#260000
0#
0/
1(
#270000
1#
1/
0(
1=
17
1;
02
1&
1%
1<
19
15
#280000
0#
0/
1(
#290000
1#
1/
0(
0C
07
1A
0;
0<
0$
0%
1B
#300000
0#
0/
1(
#310000
1#
1/
0(
1C
1>
0=
0A
14
0B
1$
1'
0&
#320000
0#
0/
1(
#330000
1#
1/
0(
0C
1;
04
13
0$
05
#340000
0#
0/
1(
#350000
1#
1/
0(
1C
0>
17
0;
18
03
1<
1$
0'
1%
0<
15
#360000
0#
0/
1(
#370000
1#
1/
0(
0C
1>
1=
07
1A
08
0$
1'
1&
0%
#380000
0#
0/
1(
#390000
1#
1/
0(
0>
0=
1B
06
0A
0'
0&
0B
#400000
0#
0/
1(
#410000
1#
1/
0(
1>
17
1;
1'
1%
1<
#420000
0#
0/
1(
#430000
1#
1/
0(
1=
1@
0;
16
1&
0<
#440000
0#
0/
1(
#450000
1#
1/
0(
1C
0>
0=
07
0@
12
1$
0'
0&
0%
09
05
#460000
0#
0/
1(
#470000
1#
1/
0(
1=
17
1;
02
1&
1%
1<
19
15
#480000
0#
0/
1(
#490000
1#
1/
0(
0C
07
1A
0;
0<
0$
0%
1B
#500000
0#
0/
1(
#510000
1#
1/
0(
1C
1>
0=
0A
14
0B
1$
1'
0&
#520000
0#
0/
1(
#530000
1#
1/
0(
0C
1;
04
13
0$
05
#540000
0#
0/
1(
#550000
1#
1/
0(
1C
0>
17
0;
18
03
1<
1$
0'
1%
0<
15
#560000
0#
0/
1(
#570000
1#
1/
0(
0C
1>
1=
07
1A
08
0$
1'
1&
0%
#580000
0#
0/
1(
#590000
1#
1/
0(
0>
0=
1B
06
0A
0'
0&
0B
#600000
0#
0/
1(
#610000
1#
1/
0(
1>
17
1;
1'
1%
1<
#620000
0#
0/
1(
#630000
1#
1/
0(
1=
1@
0;
16
1&
0<
#640000
0#
0/
1(
#650000
1#
1/
0(
1C
0>
0=
07
0@
12
1$
0'
0&
0%
09
05
#660000
0#
0/
1(
#670000
1#
1/
0(
1=
17
1;
02
1&
1%
1<
19
15
#680000
0#
0/
1(
#690000
1#
1/
0(
0C
07
1A
0;
0<
0$
0%
1B
#700000
0#
0/
1(
#710000
1#
1/
0(
1C
1>
0=
0A
14
0B
1$
1'
0&
#720000
0#
0/
1(
#730000
1#
1/
0(
0C
1;
04
13
0$
05
#740000
0#
0/
1(
#750000
1#
1/
0(
1C
0>
17
0;
18
03
1<
1$
0'
1%
0<
15
#760000
0#
0/
1(
#770000
1#
1/
0(
0C
1>
1=
07
1A
08
0$
1'
1&
0%
#780000
0#
0/
1(
#790000
1#
1/
0(
0>
0=
1B
06
0A
0'
0&
0B
#800000
0#
0/
1(
#810000
1#
1/
0(
1>
17
1;
1'
1%
1<
#820000
0#
0/
1(
#830000
1#
1/
0(
1=
1@
0;
16
1&
0<
#840000
0#
0/
1(
#850000
1#
1/
0(
1C
0>
0=
07
0@
12
1$
0'
0&
0%
09
05
#860000
0#
0/
1(
#870000
1#
1/
0(
1=
17
1;
02
1&
1%
1<
19
15
#880000
0#
0/
1(
#890000
1#
1/
0(
0C
07
1A
0;
0<
0$
0%
1B
#900000
0#
0/
1(
#910000
1#
1/
0(
1C
1>
0=
0A
14
0B
1$
1'
0&
#920000
0#
0/
1(
#930000
1#
1/
0(
0C
1;
04
13
0$
05
#940000
0#
0/
1(
#950000
1#
1/
0(
1C
0>
17
0;
18
03
1<
1$
0'
1%
0<
15
#960000
0#
0/
1(
#970000
1#
1/
0(
0C
1>
1=
07
1A
08
0$
1'
1&
0%
#980000
0#
0/
1(
#990000
1#
1/
0(
0>
0=
1B
06
0A
0'
0&
0B
