arxvmis/pract5/simulation/qsim/praca5.msim.vcd
$comment
	File created using the following command:
		vcd file praca5.msim.vcd -direction
$end
$date
	Tue Oct 24 18:17:34 2023
$end
$version
	ModelSim Version 10.1d
$end
$timescale
	1ps
$end
$scope module praca5_vlg_vec_tst $end
$var reg 1 ! A0 $end
$var reg 1 " A1 $end
$var reg 1 # A2 $end
$var reg 1 $ B0 $end
$var reg 1 % B1 $end
$var reg 1 & B2 $end
$var wire 1 ' A_more_B $end
$var wire 1 ( sampler $end
$scope module i1 $end
$var wire 1 ) gnd $end
$var wire 1 * vcc $end
$var wire 1 + unknown $end
$var tri1 1 , devclrn $end
$var tri1 1 - devpor $end
$var tri1 1 . devoe $end
$var wire 1 / A_more_B~output_o $end
$var wire 1 0 B2~input_o $end
$var wire 1 1 A2~input_o $end
$var wire 1 2 B0~input_o $end
$var wire 1 3 B1~input_o $end
$var wire 1 4 A0~input_o $end
$var wire 1 5 A1~input_o $end
$var wire 1 6 inst11~0_combout $end
$var wire 1 7 inst11~1_combout $end
$upscope $end
$upscope $end
$enddefinitions $end
#0
$dumpvars
0!
1"
0#
1$
0%
0&
1'
x(
0)
1*
x+
1,
1-
1.
1/
00
01
12
03
04
15
16
17
$end
#10000
1!
14
0(
#20000
0"
0!
05
04
1(
06
07
0/
0'
#30000
1!
14
0(
#40000
1#
1"
0!
11
15
04
1(
16
17
1/
1'
#50000
1!
14
0(
#60000
0"
0!
05
04
1(
06
#70000
1!
14
0(
#80000
0$
0#
1"
0!
02
01
15
04
1(
16
07
0/
0'
17
1/
1'
#90000
1!
14
0(
#100000
0"
0!
05
04
1(
06
07
0/
0'
#110000
1!
14
0(
16
17
1/
1'
#120000
1#
1"
0!
11
15
04
1(
#130000
1!
14
0(
#140000
0"
0!
05
04
1(
06
#150000
1!
14
0(
16
#160000
1%
1$
0#
1"
0!
13
12
01
15
04
1(
06
07
0/
0'
#170000
1!
14
0(
#180000
0"
0!
05
04
1(
#190000
1!
14
0(
#200000
1#
1"
0!
11
15
04
1(
17
1/
1'
#210000
1!
14
0(
#220000
0"
0!
05
04
1(
#230000
1!
14
0(
#240000
0$
0#
1"
0!
02
01
15
04
1(
07
0/
0'
#250000
1!
14
0(
16
17
1/
1'
#260000
0"
0!
05
04
1(
06
07
0/
0'
#270000
1!
14
0(
#280000
1#
1"
0!
11
15
04
1(
17
1/
1'
#290000
1!
14
0(
16
#300000
0"
0!
05
04
1(
06
#310000
1!
14
0(
#320000
1&
0%
1$
0#
1"
0!
10
03
12
01
15
04
1(
16
07
0/
0'
#330000
1!
14
0(
#340000
0"
0!
05
04
1(
06
#350000
1!
14
0(
#360000
1#
1"
0!
11
15
04
1(
16
17
1/
1'
#370000
1!
14
0(
#380000
0"
0!
05
04
1(
06
07
0/
0'
#390000
1!
14
0(
#400000
0$
0#
1"
0!
02
01
15
04
1(
16
#410000
1!
14
0(
#420000
0"
0!
05
04
1(
06
#430000
1!
14
0(
16
#440000
1#
1"
0!
11
15
04
1(
17
1/
1'
#450000
1!
14
0(
#460000
0"
0!
05
04
1(
06
07
0/
0'
#470000
1!
14
0(
16
17
1/
1'
#480000
1%
1$
0#
1"
0!
13
12
01
15
04
1(
06
07
0/
0'
#490000
1!
14
0(
#500000
0"
0!
05
04
1(
#510000
1!
14
0(
#520000
1#
1"
0!
11
15
04
1(
#530000
1!
14
0(
#540000
0"
0!
05
04
1(
#550000
1!
14
0(
#560000
0$
0#
1"
0!
02
01
15
04
1(
#570000
1!
14
0(
16
#580000
0"
0!
05
04
1(
06
#590000
1!
14
0(
#600000
1#
1"
0!
11
15
04
1(
#610000
1!
14
0(
16
17
1/
1'
#620000
0"
0!
05
04
1(
06
07
0/
0'
#630000
1!
14
0(
#640000
0&
0%
1$
0#
1"
0!
00
03
12
01
15
04
1(
16
17
1/
1'
#650000
1!
14
0(
#660000
0"
0!
05
04
1(
06
07
0/
0'
#670000
1!
14
0(
#680000
1#
1"
0!
11
15
04
1(
16
17
1/
1'
#690000
1!
14
0(
#700000
0"
0!
05
04
1(
06
#710000
1!
14
0(
#720000
0$
0#
1"
0!
02
01
15
04
1(
16
07
0/
0'
17
1/
1'
#730000
1!
14
0(
#740000
0"
0!
05
04
1(
06
07
0/
0'
#750000
1!
14
0(
16
17
1/
1'
#760000
1#
1"
0!
11
15
04
1(
#770000
1!
14
0(
#780000
0"
0!
05
04
1(
06
#790000
1!
14
0(
16
#800000
1%
1$
0#
1"
0!
13
12
01
15
04
1(
06
07
0/
0'
#810000
1!
14
0(
#820000
0"
0!
05
04
1(
#830000
1!
14
0(
#840000
1#
1"
0!
11
15
04
1(
17
1/
1'
#850000
1!
14
0(
#860000
0"
0!
05
04
1(
#870000
1!
14
0(
#880000
0$
0#
1"
0!
02
01
15
04
1(
07
0/
0'
#890000
1!
14
0(
16
17
1/
1'
#900000
0"
0!
05
04
1(
06
07
0/
0'
#910000
1!
14
0(
#920000
1#
1"
0!
11
15
04
1(
17
1/
1'
#930000
1!
14
0(
16
#940000
0"
0!
05
04
1(
06
#950000
1!
14
0(
#960000
1&
0%
1$
0#
1"
0!
10
03
12
01
15
04
1(
16
07
0/
0'
#970000
1!
14
0(
#980000
0"
0!
05
04
1(
06
#990000
1!
14
0(
